﻿{
  "Files": [
    {
      "Id": "8683db1a-f995-410e-b5ab-8c09352c77a6",
      "FilePath": "AntMan.PNG"
    },
    {
      "Id": "2d490d24-13ef-480c-92e3-06d2f9800074",
      "FilePath": "CaptainMarvel.PNG"
    },
    {
      "Id": "91afbb3f-2598-4373-b276-1f9d0d03c600",
      "FilePath": "BlackPanter.PNG"
    },
    {
      "Id": "f78341e2-6676-443d-b57b-b161bd6935a4",
      "FilePath": "Cocas.PNG"
    },
    {
      "Id": "dd151143-0804-451f-b25c-6d49dcaa5681",
      "FilePath": "DoctorStrange.PNG"
    },
    {
      "Id": "625f01f4-6c5f-42a0-8464-b975e6ed5d98",
      "FilePath": "MsMarvel.PNG"
    }
  ]
}
